{
  "project_info": {
    "project_number": "529228242804",
    "firebase_url": "https://ehrp-25f7a.firebaseio.com",
    "project_id": "ehrp-25f7a",
    "storage_bucket": "ehrp-25f7a.appspot.com"
  },
  "client": [
    {
      "client_info": {
        "mobilesdk_app_id": "1:529228242804:android:26738c5b34fe899a",
        "android_client_info": {
          "package_name": "org.terna.ehrp"
        }
      },
      "oauth_client": [
        {
          "client_id": "529228242804-nkp5no0tpgvidh5eepmafsnod8l9n80s.apps.googleusercontent.com",
          "client_type": 1,
          "android_info": {
            "package_name": "org.terna.ehrp",
            "certificate_hash": "14292ef18958539f38829b195240fc417a69241f"
          }
        },
        {
          "client_id": "529228242804-hjqdrt2us91h6ougn883okein47lvsrv.apps.googleusercontent.com",
          "client_type": 3
        }
      ],
      "api_key": [
        {
          "current_key": "AIzaSyDJcIgNfWNRzwrhNh8_zVwiNwW_mne2xDE"
        }
      ],
      "services": {
        "analytics_service": {
          "status": 1
        },
        "appinvite_service": {
          "status": 2,
          "other_platform_oauth_client": [
            {
              "client_id": "529228242804-hjqdrt2us91h6ougn883okein47lvsrv.apps.googleusercontent.com",
              "client_type": 3
            }
          ]
        },
        "ads_service": {
          "status": 2
        }
      }
    }
  ],
  "configuration_version": "1"
}